<svg width="33" height="34" viewBox="0 0 33 34" fill="none" xmlns="http://www.w3.org/2000/svg">
<path d="M16.5 25.9375C18.8704 25.9375 21.1437 24.9959 22.8198 23.3198C24.4959 21.6437 25.4375 19.3704 25.4375 17C25.4375 14.6296 24.4959 12.3563 22.8198 10.6802C21.1437 9.00413 18.8704 8.0625 16.5 8.0625C14.1296 8.0625 11.8563 9.00413 10.1802 10.6802C8.50413 12.3563 7.5625 14.6296 7.5625 17C7.5625 19.3704 8.50413 21.6437 10.1802 23.3198C11.8563 24.9959 14.1296 25.9375 16.5 25.9375V25.9375Z" stroke="white" stroke-opacity="0.87" stroke-width="1.5" stroke-linecap="round" stroke-linejoin="round"/>
<path d="M26.3175 26.8175L26.1388 26.6388M26.1388 7.36125L26.3175 7.1825L26.1388 7.36125ZM6.6825 26.8175L6.86125 26.6388L6.6825 26.8175ZM16.5 3.36V3.25V3.36ZM16.5 30.75V30.64V30.75ZM2.86 17H2.75H2.86ZM30.25 17H30.14H30.25ZM6.86125 7.36125L6.6825 7.1825L6.86125 7.36125Z" stroke="white" stroke-opacity="0.87" stroke-width="2" stroke-linecap="round" stroke-linejoin="round"/>
</svg>
